<svg id="Layer_1" data-name="Layer 1" xmlns="http://www.w3.org/2000/svg" width="287.46" height="187.2" viewBox="0 0 287.46 187.2">
  <title>ccp-ss-logo</title>
  <path id="ccp-logo" d="M143.12,26.32l-0.33-.56a61.22,61.22,0,0,1,4.86-18s1.72-3.76,5.47-1.28c2.56,1.82,3.11,1.87,3.28,3.89,0,0-10.61,5.78-9.12,24.69-0.37-1-.76-1.92-1.17-2.84s-1-2.13-1.51-3.18S143.65,27.24,143.12,26.32ZM0.27,76.1L116.34,59.54C99.68,52.1,82.79,35.76,82.85,0c32,0,48.53,13.47,57,28.21,0.49,0.86,1,1.73,1.39,2.59s0.76,1.57,1.12,2.36c0.1,0.22.21,0.44,0.31,0.65a66.13,66.13,0,0,1,3,8.27l0.1,0.36c0.4,1.41.75,2.78,1,4.13A77.31,77.31,0,0,1,148.11,55l7.31-1c12.28-12.81,22-24.4,22-24.4A288.32,288.32,0,0,0,151.92,54.4a81.07,81.07,0,0,0-1.42-8.66c-0.36-1.62-.76-3.2-1.21-4.72s-0.87-2.81-1.36-4.19q0.39-.78.82-1.55c0.64-1.15,1.33-2.3,2.08-3.43,7.44-11.12,21-20.68,45.46-20.63,0,18.46-5.42,30.66-12.82,38.75l103.4-14.74,0.87,6.1L1.14,82.19ZM139.53,56.23L141,56l-1.34-1.46C123.42,37,102.47,19.88,102.47,19.88,114.19,33.49,130.46,48.28,139.53,56.23Zm148.2,60.27-54.47,7.77V161.7L54.74,187.2V149.72l-53.6,7.65-0.87-6.08,286.59-40.92ZM84,158q0-2.88-1.74-4t-5.51-.61a9,9,0,0,0-1.64.29,9.87,9.87,0,0,1-1.82.3l-6.45.92v1.27q2.66-.38,2.66,1.12v13.27q0,1.88-2.55,2.24V174l10-1.43v-1.21a3.25,3.25,0,0,1-2.09-.22,1.46,1.46,0,0,1-.72-1.37v-5.22a8.76,8.76,0,0,0,1.07,0,11.34,11.34,0,0,0,1.42-.14,13.11,13.11,0,0,0,3.42-.91,7.84,7.84,0,0,0,2.29-1.47,5,5,0,0,0,1.27-1.89A6,6,0,0,0,84,158Zm24.57,7.2-0.94-.15q-0.34,1.38-1,1.47a0.85,0.85,0,0,1-.87-0.32,4.19,4.19,0,0,1-.54-1.09q-0.24-.69-0.47-1.57a10.53,10.53,0,0,0-.63-1.74,4.85,4.85,0,0,0-.64-1,2.73,2.73,0,0,0-.87-0.68,3.91,3.91,0,0,0-1.26-.36,13.88,13.88,0,0,0-1.77-.09,9,9,0,0,0,4-2.12,4.57,4.57,0,0,0,1.49-3.39,5.53,5.53,0,0,0-.3-1.88,3.13,3.13,0,0,0-1-1.39,4,4,0,0,0-1.73-.78,7.4,7.4,0,0,0-2.55,0l-2.36.35-1.64.28-1.37.24-1.6.24-4.48.64v1.27q2.66-.38,2.66,1.24v13.29q0,1.68-2.46,2v1.21l9.82-1.4v-1.21q-2.55.36-2.55-1.31v-6.06a1,1,0,0,1,.69-0.3,2.25,2.25,0,0,1,1.64.3,3.81,3.81,0,0,1,1.2,1.41,15.23,15.23,0,0,1,1,2.25q0.46,1.32,1.06,2.93a2.2,2.2,0,0,0,1.12,1.23,4.51,4.51,0,0,0,2.6.18,3.87,3.87,0,0,0,1.56-.57,5.65,5.65,0,0,0,1.2-1,4.5,4.5,0,0,0,.76-1.13,2.46,2.46,0,0,0,.22-1h0Zm22.5-10a9.75,9.75,0,0,0-.8-4.14,7.12,7.12,0,0,0-2.17-2.74,7.71,7.71,0,0,0-3.21-1.39,11.76,11.76,0,0,0-3.92-.06,14.08,14.08,0,0,0-3.92,1.14,9.8,9.8,0,0,0-5.21,5.66,13.21,13.21,0,0,0-.74,4.62,10.91,10.91,0,0,0,.77,4.36A6.74,6.74,0,0,0,114,165.4a7.14,7.14,0,0,0,3.14,1.31,12.43,12.43,0,0,0,3.85,0,13,13,0,0,0,4-1.24,10.82,10.82,0,0,0,5.32-5.87,12.18,12.18,0,0,0,.78-4.42h0Zm24.21-3.33a13.35,13.35,0,0,0-.61-4.35,6.07,6.07,0,0,0-1.8-2.74,6,6,0,0,0-2.91-1.27,13,13,0,0,0-4,0q-1.71.24-2.84,0.43l-2,.36-1.59.3-1.62.26-1.29.15q-0.63.06-1.34,0.08v1.27a11.55,11.55,0,0,0,1.3,0,2.1,2.1,0,0,1,.84.11,0.84,0.84,0,0,1,.46.56,4.89,4.89,0,0,1,.14,1.41v11.8a6.53,6.53,0,0,1-.1,1.27,1.58,1.58,0,0,1-.39.79,1.86,1.86,0,0,1-.82.46,9.36,9.36,0,0,1-1.36.28v1.21l10-1.42a17.72,17.72,0,0,0,4.62-1.22A8.59,8.59,0,0,0,153,159.4a8.11,8.11,0,0,0,1.7-3.21,16.13,16.13,0,0,0,.56-4.34h0Zm24.34-13-6.88,1v1.27q2.85-.41,2.85,1.87v9a7.16,7.16,0,0,1-1.09,4.19A5,5,0,0,1,171,158a3.46,3.46,0,0,1-2-.21,3,3,0,0,1-1.23-1.11,4.53,4.53,0,0,1-.6-1.66,11.29,11.29,0,0,1-.16-1.87v-9.43q0-1.85,2.66-2.23v-1.27l-10,1.43v1.27q2.66-.38,2.66,1.47v10.09a5.23,5.23,0,0,0,.57,2.48,4.86,4.86,0,0,0,1.59,1.78,6.41,6.41,0,0,0,2.43,1,9.3,9.3,0,0,0,3.09,0,11.56,11.56,0,0,0,3.65-1.06,6.71,6.71,0,0,0,2.27-1.83,6.25,6.25,0,0,0,1.16-2.51,14.3,14.3,0,0,0,.31-3.08v-8.59a2.41,2.41,0,0,1,2.19-2.61h0.15v-1.27h-0.07ZM200,149.33l-1.23-.29a11.24,11.24,0,0,1-2.4,4.12,6,6,0,0,1-3.45,1.65,4.11,4.11,0,0,1-2.63-.35,4.05,4.05,0,0,1-1.63-1.73,8.63,8.63,0,0,1-.83-2.79,26,26,0,0,1-.23-3.57,19.84,19.84,0,0,1,.2-2.81,8.91,8.91,0,0,1,.73-2.53,5.59,5.59,0,0,1,1.44-1.91,4.55,4.55,0,0,1,2.37-1,4,4,0,0,1,3.32.8,7.7,7.7,0,0,1,2,3.93l2-.29a17.25,17.25,0,0,0-1-6.72,4.2,4.2,0,0,0-2,1.79,3.46,3.46,0,0,0-1.1-.58,6.92,6.92,0,0,0-1.37-.3,10.47,10.47,0,0,0-1.47-.06,12.15,12.15,0,0,0-1.4.11,9.77,9.77,0,0,0-3.84,1.31,8.57,8.57,0,0,0-2.6,2.49,10.26,10.26,0,0,0-1.47,3.44,18.06,18.06,0,0,0-.46,4.16,13.26,13.26,0,0,0,.5,3.76,6.58,6.58,0,0,0,1.63,2.82,6.31,6.31,0,0,0,2.92,1.62,11.15,11.15,0,0,0,4.39.11,8.51,8.51,0,0,0,2.62-.81,9.07,9.07,0,0,0,2.22-1.56A10,10,0,0,0,199,152a11,11,0,0,0,1-2.66h0ZM221.53,146h-1.67q-0.43,1.27-.83,2.2a4.75,4.75,0,0,1-2.75,2.66,12.23,12.23,0,0,1-2.78.67q-2.15.31-2.15-1.08V145a1,1,0,0,1,1-.92,7.73,7.73,0,0,1,1.32,0,1.67,1.67,0,0,1,.9.3,1.73,1.73,0,0,1,.56.85,6.72,6.72,0,0,1,.29,1.55l1.66-.24V138.9l-1.66.24a5.33,5.33,0,0,1-.37,1.7,2.7,2.7,0,0,1-.73,1,2.83,2.83,0,0,1-1,.54,9,9,0,0,1-1.26.27,0.51,0.51,0,0,1-.66-0.6V137a1,1,0,0,1,.51-0.87,3.5,3.5,0,0,1,1.46-.48q1.09-.16,2-0.21a3.43,3.43,0,0,1,1.57.24,2.6,2.6,0,0,1,1.17,1.08,6.58,6.58,0,0,1,.74,2.34l1.74-.39-0.23-5.62-16.45,2.27v1.27q2.76-.4,2.76,1.77v12.81q0,1.68-2.57,2v1.21L220.68,152Zm-96.33,4.31a4,4,0,0,0-1.64-1.72,4.38,4.38,0,0,0-2.76-.34,4.72,4.72,0,0,0-2.52,1,5.37,5.37,0,0,0-1.44,2.07,10.13,10.13,0,0,0-.66,2.77,31.42,31.42,0,0,0-.16,3.21,23.2,23.2,0,0,0,.23,3.37,8,8,0,0,0,.82,2.64,3.76,3.76,0,0,0,1.59,1.61,4.21,4.21,0,0,0,2.57.3,5,5,0,0,0,2.49-1,5.45,5.45,0,0,0,1.53-2,9.91,9.91,0,0,0,.77-2.79,24.78,24.78,0,0,0,.21-3.33A22.89,22.89,0,0,0,126,153a8.2,8.2,0,0,0-.82-2.68h0Zm-25,4.75a4.64,4.64,0,0,0-.24-1.64,2.22,2.22,0,0,0-.66-1,2,2,0,0,0-1-.41A4.48,4.48,0,0,0,97,152l-0.57.08q-0.86.12-.86,1.54V159a0.36,0.36,0,0,0,.46.22h0l0.72-.1a9,9,0,0,0,1.39-.3,2.6,2.6,0,0,0,1.06-.61,2.76,2.76,0,0,0,.69-1.18,6.73,6.73,0,0,0,.23-2h0Zm-21.82.52a2.24,2.24,0,0,0-1.22-.61,6,6,0,0,0-1.94,0,1.23,1.23,0,0,0-1,1.42v6.69a7.51,7.51,0,0,0,1.14,0,8.18,8.18,0,0,0,1.34-.13,2.8,2.8,0,0,0,1.39-.53,2.48,2.48,0,0,0,.74-1,4.3,4.3,0,0,0,.3-1.33q0.06-.75.06-1.52a8.54,8.54,0,0,0-.17-1.84,2.5,2.5,0,0,0-.65-1.17h0Zm66.37-10.3a8.87,8.87,0,0,0-.94.18,1.41,1.41,0,0,0-.59.29,0.94,0.94,0,0,0-.29.52,4.13,4.13,0,0,0-.07.85v12.69a3.66,3.66,0,0,0,.11,1,0.87,0.87,0,0,0,.4.52,1.35,1.35,0,0,0,.73.14,8.81,8.81,0,0,0,1.1-.11,5.62,5.62,0,0,0,4.15-2.54,11.75,11.75,0,0,0,1.39-6.33q0-4.12-1.37-5.92t-4.63-1.35h0ZM18.07,105.8l7.16-1V97.62s0-11.34-10.19-9.88S4.87,100.52,4.87,100.52v30.86S4.8,142.73,15,141.27s10.19-12.79,10.19-12.79v-7.2l-7.13,1v7.2s0.28,3.81-2.89,4.26c-2.68.38-2.68-3.46-2.68-3.46V99.43s0-3.85,2.68-4.23c3.17-.45,2.89,3.43,2.89,3.43v7.17h0ZM38.3,85l9.31-1.33,7.84,51.27L48,136l-1.41-10.49-7.34,1-1.43,10.94-7.41,1.06Zm2,33.28,5.22-.75-2.19-16.23L43.19,100l-0.42.06-0.21,1.39Zm42.5-24c0,12-6.78,16.72-13.4,17.67v21L61.82,134V81.64l7.62-1.09c6.63-.95,13.39,1.72,13.39,13.76h0ZM69.43,88.38v15.75c4.8-.69,5.72-2.6,5.72-8.44S74.23,87.71,69.43,88.38ZM97.09,129V76.6l-7.62,1.09v52.39Zm20.59-2.93V81.58l7.2-1V72.63l-22,3.14v7.92l7.2-1v44.48Zm32.81-46.3v30.86s0.07,11.32-10.16,12.79-10.16-9.88-10.16-9.88V82.65s-0.07-11.32,10.16-12.78S150.49,79.75,150.49,79.75Zm-7.62,31.94V80.85S143,77,140.33,77.37s-2.55,4.21-2.55,4.21v30.86s-0.14,3.87,2.55,3.48,2.55-4.22,2.55-4.22h0Zm15.61-43.82v52.39l17.71-2.53v-7.13l-10.09,1.44V66.76Zm50,10.83,7.13-1V70.46s0.07-11.34-10.16-9.88-10.16,12.79-10.16,12.79v30.86s-0.07,11.34,10.16,9.88,10.16-12.79,10.16-12.79v-7.2l-7.13,1v7.2s0.28,3.81-2.89,4.26c-2.68.38-2.68-3.46-2.68-3.46V72.27s0-3.85,2.68-4.23c3.17-.45,2.89,3.43,2.89,3.43V78.7ZM230.66,110V57.55L223,58.64V111Zm20.6-2.93V62.52l7.2-1V53.59l-22,3.14v7.92l7.2-1v44.48Zm26-3.71V81L285,49.8l-7.48,1.11-3.81,17.25-0.21.53h-0.14l-0.21-.47L269.39,52l-7.48,1.07L269.68,82v22.31Zm-35.86,31.3a1.36,1.36,0,0,0,.2.71,1.17,1.17,0,0,0,1.21.36,2.26,2.26,0,0,0,.71-0.22,1,1,0,0,0,.62-0.9,0.61,0.61,0,0,0-.26-0.58,2.27,2.27,0,0,0-.83-0.2l-0.69-.06a2.73,2.73,0,0,1-1-.22,1,1,0,0,1-.49-0.93,1.8,1.8,0,0,1,.48-1.25,2.18,2.18,0,0,1,1.36-.66,2.1,2.1,0,0,1,1.38.21,1.28,1.28,0,0,1,.57,1.22l-0.67.1a1.22,1.22,0,0,0-.22-0.63,1.11,1.11,0,0,0-1.07-.27,1.37,1.37,0,0,0-.87.39,1,1,0,0,0-.27.66,0.52,0.52,0,0,0,.31.53,4.06,4.06,0,0,0,.93.16l0.72,0.07a1.89,1.89,0,0,1,.8.22,1.11,1.11,0,0,1,.49,1,1.6,1.6,0,0,1-.62,1.36,3.07,3.07,0,0,1-1.45.59,1.91,1.91,0,0,1-1.51-.29,1.52,1.52,0,0,1-.53-1.3Zm4.39-4.24,1-.15,1.52,4.29,1.51-4.73,1-.14V135l-0.68.1v-4.5l-1.51,4.72-0.71.1-1.53-4.28v0.16q0,0.2,0,.6t0,0.59v3.15l-0.6.12v-5.37Z" transform="translate(-0.27)" fill="#b19a60"/>
  <path id="ss-logo" d="M140.58,84.74c12.81-.64,11.67,14,5.92,15.43s-8-3.13-7.6-6.13,3.39-4.9,5.87-3.94A2.2,2.2,0,0,1,146,92.95V93a1,1,0,0,0-.81-1.07,1.44,1.44,0,0,0-.5-0.1,1.26,1.26,0,0,0-1.1.6,1.4,1.4,0,0,0,.48,1.9l0.12,0.06a1.81,1.81,0,0,0,1.93-.18,3,3,0,0,0,1.27-2.12A3.25,3.25,0,0,0,146.14,89a4.63,4.63,0,0,0-2.51-.95,6,6,0,0,0-6.16,3.35A8,8,0,0,0,140,102a6.81,6.81,0,0,0,3.85,1.3c4.73,0.08,8.92-1.9,10.32-7.28s0-8.85-2.15-11.54l-0.32-.29c-2.45-3.35-1.59-4.52-1.59-4.52a1.9,1.9,0,0,0-1.1,1.51l-0.2-.06a0.52,0.52,0,0,0,0,.07c-1.48-1.61-2.89-3.1-3.32-5-1.2-5.22,1.21-7.27,2.82-7.69a4.32,4.32,0,0,1,3.11.42c1.4,1.05,1.14,2.29.75,2.62a1.16,1.16,0,0,0-.3-0.95,1.5,1.5,0,0,0-1.55-.41,1,1,0,0,0-.58.37,1.73,1.73,0,0,0,.63,2.39,1.8,1.8,0,0,0,1.78,0,4.1,4.1,0,0,0,.5-0.35,2.3,2.3,0,0,0,.76-0.95c1-2.45-.76-5-3.65-5.37-2.66-.38-5.9.95-7.54,4.86-3,7.12,3.94,12.78,3.94,12.78a6,6,0,0,0-5.61.77v0h0Zm14.73,16.67c2.38,1.1,3.53.25,3.85-.06a0.13,0.13,0,0,0,0-.19h0c-2.25-2.08-4.51.1-4.51,0.1A1.2,1.2,0,0,1,155.3,101.41Zm2.89,1.9c4.17,0.28,6.21,2.3,7.19,4.35a8,8,0,0,1-1,8.44,7.33,7.33,0,0,1-6.15,2.74c-1.93,0-5.09-.23-6.53-3.74a8.13,8.13,0,0,1-.66-2.85,5.17,5.17,0,0,1,2.47-4.65h0a3.82,3.82,0,0,1,2.75-.41c1.56,0.42,1.57,2.17,1.53,2.77a1.11,1.11,0,0,0-.64-0.95,1.46,1.46,0,0,0-.47-0.11,1.16,1.16,0,0,0-1,.48,1.25,1.25,0,0,0,.4,1.74l0.15,0.08a1.78,1.78,0,0,0,1.8-.09,2.58,2.58,0,0,0,1.22-1.84,3.3,3.3,0,0,0-1.21-3.11,5,5,0,0,0-1.69-.73,7.39,7.39,0,0,0-7.19,2.55,8.45,8.45,0,0,0-1.11,8.55c1.73,4.08,5.14,6.08,10.14,6.17,0,0,10.34.32,11.88-10,1.55-9-7.17-11.92-8.32-16.87-1.09-4.75,1.21-6.42,2.74-6.75a5.12,5.12,0,0,1,.81,0c1.66-.06,3.21.88,2.83,2.62,0,0.15,0,0-.06.09a1.2,1.2,0,0,0-.23-0.63,1.45,1.45,0,0,0-2.16,0c-0.9,1.33,1,2.85,2.41,2.13a3.73,3.73,0,0,0,.49-0.29,1.9,1.9,0,0,0,.68-0.87c1.46-3.47-3.31-6.25-7.2-4.46a7,7,0,0,0-3.37,3.53,7.74,7.74,0,0,0-.75,3.3c0,4.18,3.41,7.48,4.2,8.18a8.11,8.11,0,0,0-4,.62v0.06Zm-0.26,6.89a0.94,0.94,0,0,0,0-.18A0.88,0.88,0,0,1,157.93,110.2ZM127.32,123l12.53-15.95,0.47,0.36L127.8,123.39Zm30.29-38.44,15.61-19.8,0.47,0.36-15.61,19.8ZM117.06,97.83l2.31-1.9,0.58-.52a3.57,3.57,0,0,0,.39-0.44,1.52,1.52,0,0,0,.21-0.4,1.32,1.32,0,0,0,.08-0.43,0.94,0.94,0,0,0-.31-0.76,1.14,1.14,0,0,0-.77-0.27,1.37,1.37,0,0,0-.81.25,3.57,3.57,0,0,0-.73.75l-0.84-.66a5.13,5.13,0,0,1,.49-0.59,2.82,2.82,0,0,1,.54-0.44,2.28,2.28,0,0,1,.65-0.27,3.22,3.22,0,0,1,.8-0.09,2.71,2.71,0,0,1,.9.14,2,2,0,0,1,.7.4,1.79,1.79,0,0,1,.45.63,2,2,0,0,1,.16.81h0a2.08,2.08,0,0,1-.42,1.31,4,4,0,0,1-.55.59q-0.33.29-.77,0.66l-1.4,1.13h3.14v1h-4.82V97.83Zm10.18,1a2.66,2.66,0,0,1-1.2-.27,2.8,2.8,0,0,1-1-.73,3.28,3.28,0,0,1-.59-1.08,4.15,4.15,0,0,1-.21-1.33h0a4.07,4.07,0,0,1,.21-1.33,3.33,3.33,0,0,1,.6-1.08,2.85,2.85,0,0,1,3.36-.69,2.73,2.73,0,0,1,1,.72,3.45,3.45,0,0,1,.59,1.08,4.1,4.1,0,0,1,.21,1.33h0A4.14,4.14,0,0,1,130,96.8a3.4,3.4,0,0,1-.6,1.08,2.82,2.82,0,0,1-1,.73A2.68,2.68,0,0,1,127.24,98.86Zm0-1.05a1.36,1.36,0,0,0,.7-0.18,1.67,1.67,0,0,0,.53-0.53,2.53,2.53,0,0,0,.34-0.75,3.37,3.37,0,0,0,.12-0.95h0a3.32,3.32,0,0,0-.13-0.95,2.6,2.6,0,0,0-.35-0.75,1.7,1.7,0,0,0-.54-0.51,1.42,1.42,0,0,0-1.41,0,1.71,1.71,0,0,0-.53.49,2.42,2.42,0,0,0-.34.74,3.41,3.41,0,0,0-.12.95h0a3.39,3.39,0,0,0,.12.95,2.42,2.42,0,0,0,.35.75,1.76,1.76,0,0,0,.54.51,1.36,1.36,0,0,0,.73.2h0Zm50.11-4.51-1.2.33-0.25-.95,1.81-.57h0.81v6.65h-1.16V93.29h0ZM184,98.86a2.86,2.86,0,0,1-1.08-.18,2.39,2.39,0,0,1-.79-0.51,2.5,2.5,0,0,1-.34-0.42,2.6,2.6,0,0,1-.25-0.53,3.6,3.6,0,0,1-.16-0.68,6.23,6.23,0,0,1-.06-0.88h0a5.25,5.25,0,0,1,.15-1.41A3.43,3.43,0,0,1,182,93.1a2.53,2.53,0,0,1,.9-0.76,2.69,2.69,0,0,1,1.25-.28,3,3,0,0,1,1.13.19,3.78,3.78,0,0,1,1,.54l-0.64.95a3.6,3.6,0,0,0-.67-0.43,1.84,1.84,0,0,0-.78-0.15,1.31,1.31,0,0,0-.74.2,1.65,1.65,0,0,0-.49.51,2.17,2.17,0,0,0-.28.68,3.44,3.44,0,0,0-.07.63,2.35,2.35,0,0,1,.68-0.48,2.12,2.12,0,0,1,1-.18,2.93,2.93,0,0,1,1,.13,2.11,2.11,0,0,1,.74.41,1.9,1.9,0,0,1,.5.66,2,2,0,0,1,.18.87h0a2.13,2.13,0,0,1-.72,1.66,2.44,2.44,0,0,1-.79.47,2.93,2.93,0,0,1-1.14.13h0Zm0-1a1.37,1.37,0,0,0,1-.34,1.13,1.13,0,0,0,.36-0.85h0a1.06,1.06,0,0,0-.37-0.83,1.46,1.46,0,0,0-1-.32,1.58,1.58,0,0,0-.57.09,1.36,1.36,0,0,0-.42.25,1,1,0,0,0-.27.37,1.09,1.09,0,0,0-.1.45h0a1.08,1.08,0,0,0,.38.85,1.47,1.47,0,0,0,1,.33h0Z" transform="translate(-0.27)" fill="#b19b61"/>
</svg>
